sim/tb_audio_effects_sine.vcd
$date
	Mon Sep 15 22:50:10 2025
$end
$version
	ModelSim Version 10.1d
$end
$timescale
	1ps
$end
$scope module tb_audio_effects_sine $end
$var reg 1 ! clk $end
$var reg 1 " sample_end $end
$var reg 1 # sample_req $end
$var wire 1 $ audio_output [15] $end
$var wire 1 % audio_output [14] $end
$var wire 1 & audio_output [13] $end
$var wire 1 ' audio_output [12] $end
$var wire 1 ( audio_output [11] $end
$var wire 1 ) audio_output [10] $end
$var wire 1 * audio_output [9] $end
$var wire 1 + audio_output [8] $end
$var wire 1 , audio_output [7] $end
$var wire 1 - audio_output [6] $end
$var wire 1 . audio_output [5] $end
$var wire 1 / audio_output [4] $end
$var wire 1 0 audio_output [3] $end
$var wire 1 1 audio_output [2] $end
$var wire 1 2 audio_output [1] $end
$var wire 1 3 audio_output [0] $end
$var reg 16 4 audio_input [15:0] $end
$var reg 4 5 control [3:0] $end
$var integer 32 6 fd $end
$var integer 32 7 n $end
$scope task pulse $end
$var reg 1 8 for_req $end
$var reg 1 9 for_end $end
$upscope $end
$scope module dut $end
$var parameter 32 : SINE $end
$var parameter 32 ; FEEDBACK $end
$var wire 1 < clk $end
$var wire 1 = sample_end $end
$var wire 1 > sample_req $end
$var wire 1 $ audio_output [15] $end
$var wire 1 % audio_output [14] $end
$var wire 1 & audio_output [13] $end
$var wire 1 ' audio_output [12] $end
$var wire 1 ( audio_output [11] $end
$var wire 1 ) audio_output [10] $end
$var wire 1 * audio_output [9] $end
$var wire 1 + audio_output [8] $end
$var wire 1 , audio_output [7] $end
$var wire 1 - audio_output [6] $end
$var wire 1 . audio_output [5] $end
$var wire 1 / audio_output [4] $end
$var wire 1 0 audio_output [3] $end
$var wire 1 1 audio_output [2] $end
$var wire 1 2 audio_output [1] $end
$var wire 1 3 audio_output [0] $end
$var wire 1 ? audio_input [15] $end
$var wire 1 @ audio_input [14] $end
$var wire 1 A audio_input [13] $end
$var wire 1 B audio_input [12] $end
$var wire 1 C audio_input [11] $end
$var wire 1 D audio_input [10] $end
$var wire 1 E audio_input [9] $end
$var wire 1 F audio_input [8] $end
$var wire 1 G audio_input [7] $end
$var wire 1 H audio_input [6] $end
$var wire 1 I audio_input [5] $end
$var wire 1 J audio_input [4] $end
$var wire 1 K audio_input [3] $end
$var wire 1 L audio_input [2] $end
$var wire 1 M audio_input [1] $end
$var wire 1 N audio_input [0] $end
$var wire 1 O control [3] $end
$var wire 1 P control [2] $end
$var wire 1 Q control [1] $end
$var wire 1 R control [0] $end
$var reg 7 S index [6:0] $end
$var reg 16 T last_sample [15:0] $end
$var reg 16 U dat [15:0] $end
$upscope $end
$upscope $end
$enddefinitions $end
#0
$dumpvars
0!
0"
0#
b0 4
b1 5
b0 S
bx T
bx U
08
09
b0 :
b1 ;
b10000000000000000000000000000101 6
bx 7
x3
x2
x1
x0
x/
x.
x-
x,
x+
x*
x)
x(
x'
x&
x%
x$
0<
0=
0>
0N
0M
0L
0K
0J
0I
0H
0G
0F
0E
0D
0C
0B
0A
0@
0?
1R
0Q
0P
0O
$end
#5000
1!
1<
#10000
0!
0<
#15000
1!
1<
#20000
0!
0<
#25000
1!
1<
#30000
0!
0<
#35000
1!
1<
#40000
0!
0<
#45000
1!
1<
b0 7
19
1"
1=
#50000
0!
0<
#55000
1!
1<
18
09
b0 T
0"
1#
0=
1>
#60000
0!
0<
#65000
1!
1<
b0 U
b1 S
0#
03
02
01
00
0/
0.
0-
0,
0+
0*
0)
0(
0'
0&
0%
0$
0>
#70000
0!
0<
#75000
1!
1<
#80000
0!
0<
#85000
1!
1<
#90000
0!
0<
#95000
1!
1<
b1 7
08
19
1"
1=
#100000
0!
0<
#105000
1!
1<
18
09
0"
1#
0=
1>
#110000
0!
0<
#115000
1!
1<
b100000000101 U
b10 S
0#
13
11
1(
0>
#120000
0!
0<
#125000
1!
1<
#130000
0!
0<
#135000
1!
1<
#140000
0!
0<
#145000
1!
1<
b10 7
08
19
1"
1=
#150000
0!
0<
#155000
1!
1<
18
09
0"
1#
0=
1>
#160000
0!
0<
#165000
1!
1<
b1000000000010 U
b11 S
0#
03
12
01
0(
1'
0>
#170000
0!
0<
#175000
1!
1<
#180000
0!
0<
#185000
1!
1<
#190000
0!
0<
#195000
1!
1<
b11 7
08
19
1"
1=
#200000
0!
0<
#205000
1!
1<
18
09
0"
1#
0=
1>
#210000
0!
0<
#215000
1!
1<
b1011111101110 U
b100 S
0#
11
10
1.
1-
1,
1+
1*
1)
0>
#220000
0!
0<
#225000
1!
1<
#230000
0!
0<
#235000
1!
1<
#240000
0!
0<
#245000
1!
1<
b100 7
08
19
1"
1=
#250000
0!
0<
#255000
1!
1<
18
09
0"
1#
0=
1>
#260000
0!
0<
#265000
1!
1<
b1111111000011 U
b101 S
0#
13
01
00
0.
1(
0>
#270000
0!
0<
#275000
1!
1<
#280000
0!
0<
#285000
1!
1<
#290000
0!
0<
#295000
1!
1<
b101 7
08
19
1"
1=
#300000
0!
0<
#305000
1!
1<
18
09
0"
1#
0=
1>
#310000
0!
0<
#315000
1!
1<
b10011101110111 U
b110 S
0#
11
1/
1.
0,
0(
0'
1&
0>
#320000
0!
0<
#325000
1!
1<
#330000
0!
0<
#335000
1!
1<
#340000
0!
0<
#345000
1!
1<
b110 7
08
19
1"
1=
#350000
0!
0<
#355000
1!
1<
18
09
0"
1#
0=
1>
#360000
0!
0<
#365000
1!
1<
b10111100000100 U
b111 S
0#
03
02
0/
0.
0-
1(
0>
#370000
0!
0<
#375000
1!
1<
#380000
0!
0<
#385000
1!
1<
#390000
0!
0<
#395000
1!
1<
b111 7
08
19
1"
1=
#400000
0!
0<
#405000
1!
1<
18
09
0"
1#
0=
1>
#410000
0!
0<
#415000
1!
1<
b11011001100010 U
b1000 S
0#
12
01
1.
1-
0+
0(
1'
0>
#420000
0!
0<
#425000
1!
1<
#430000
0!
0<
#435000
1!
1<
#440000
0!
0<
#445000
1!
1<
b1000 7
08
19
1"
1=
#450000
0!
0<
#455000
1!
1<
18
09
0"
1#
0=
1>
#460000
0!
0<
#465000
1!
1<
b11110110001001 U
b1001 S
0#
13
02
10
0.
0-
1,
1+
0*
1(
0>
#470000
0!
0<
#475000
1!
1<
#480000
0!
0<
#485000
1!
1<
#490000
0!
0<
#495000
1!
1<
b1001 7
08
19
1"
1=
#500000
0!
0<
#505000
1!
1<
18
09
0"
1#
0=
1>
#510000
0!
0<
#515000
1!
1<
b100010001110010 U
b1010 S
0#
03
12
00
1/
1.
1-
0,
0+
0(
0'
0&
1%
0>
#520000
0!
0<
#525000
1!
1<
#530000
0!
0<
#535000
1!
1<
#540000
0!
0<
#545000
1!
1<
b1010 7
08
19
1"
1=
#550000
0!
0<
#555000
1!
1<
18
09
0"
1#
0=
1>
#560000
0!
0<
#565000
1!
1<
b100101100010110 U
b1011 S
0#
11
0.
0-
1+
1*
0)
1(
0>
#570000
0!
0<
#575000
1!
1<
#580000
0!
0<
#585000
1!
1<
#590000
0!
0<
#595000
1!
1<
b1011 7
08
19
1"
1=
#600000
0!
0<
#605000
1!
1<
18
09
0"
1#
0=
1>
#610000
0!
0<
#615000
1!
1<
b101000101101111 U
b1100 S
0#
13
10
0/
1.
1-
0*
0(
1'
0>
#620000
0!
0<
#625000
1!
1<
#630000
0!
0<
#635000
1!
1<
#640000
0!
0<
#645000
1!
1<
b1100 7
08
19
1"
1=
#650000
0!
0<
#655000
1!
1<
18
09
0"
1#
0=
1>
#660000
0!
0<
#665000
1!
1<
b101011101110110 U
b1101 S
0#
03
00
1/
1*
1)
0>
#670000
0!
0<
#675000
1!
1<
#680000
0!
0<
#685000
1!
1<
#690000
0!
0<
#695000
1!
1<
b1101 7
08
19
1"
1=
#700000
0!
0<
#705000
1!
1<
18
09
0"
1#
0=
1>
#710000
0!
0<
#715000
1!
1<
b101110100100101 U
b1110 S
0#
13
02
0/
0-
0*
1(
0>
#720000
0!
0<
#725000
1!
1<
#730000
0!
0<
#735000
1!
1<
#740000
0!
0<
#745000
1!
1<
b1110 7
08
19
1"
1=
#750000
0!
0<
#755000
1!
1<
18
09
0"
1#
0=
1>
#760000
0!
0<
#765000
1!
1<
b110001001110110 U
b1111 S
0#
03
12
1/
1-
0+
1*
0)
0(
0'
1&
0>
#770000
0!
0<
#775000
1!
1<
#780000
0!
0<
#785000
1!
1<
#790000
0!
0<
#795000
1!
1<
b1111 7
08
19
1"
1=
#800000
0!
0<
#805000
1!
1<
18
09
0"
1#
0=
1>
#810000
0!
0<
#815000
1!
1<
b110011101100100 U
b10000 S
0#
02
0/
1+
1)
0>
#820000
0!
0<
#825000
1!
1<
#830000
0!
0<
#835000
1!
1<
#840000
0!
0<
#845000
1!
1<
b10000 7
08
19
1"
1=
#850000
0!
0<
#855000
1!
1<
18
09
0"
1#
0=
1>
#860000
0!
0<
#865000
1!
1<
b110101111101010 U
b10001 S
0#
12
01
10
1,
0)
1(
0>
#870000
0!
0<
#875000
1!
1<
#880000
0!
0<
#885000
1!
1<
#890000
0!
0<
#895000
1!
1<
b10001 7
08
19
1"
1=
#900000
0!
0<
#905000
1!
1<
18
09
0"
1#
0=
1>
#910000
0!
0<
#915000
1!
1<
b111000000000100 U
b10010 S
0#
02
11
00
0.
0-
0,
0+
0*
0(
1'
0>
#920000
0!
0<
#925000
1!
1<
#930000
0!
0<
#935000
1!
1<
#940000
0!
0<
#945000
1!
1<
b10010 7
08
19
1"
1=
#950000
0!
0<
#955000
1!
1<
18
09
0"
1#
0=
1>
#960000
0!
0<
#965000
1!
1<
b111001110101101 U
b10011 S
0#
13
10
1.
1,
1+
1*
0>
#970000
0!
0<
#975000
1!
1<
#980000
0!
0<
#985000
1!
1<
#990000
0!
0<
#995000
1!
1<
b10011 7
08
19
1"
1=
#1000000
0!
0<
#1005000
1!
1<
18
09
0"
1#
0=
1>
#1010000
0!
0<
#1015000
1!
1<
b111011011100001 U
b10100 S
0#
01
00
1-
0+
1)
0>
#1020000
0!
0<
#1025000
1!
1<
#1030000
0!
0<
#1035000
1!
1<
#1040000
0!
0<
#1045000
1!
1<
b10100 7
08
19
1"
1=
#1050000
0!
0<
#1055000
1!
1<
18
09
0"
1#
0=
1>
#1060000
0!
0<
#1065000
1!
1<
b111100110011110 U
b10101 S
0#
03
12
11
10
1/
0.
0-
1+
0*
0)
1(
0>
#1070000
0!
0<
#1075000
1!
1<
#1080000
0!
0<
#1085000
1!
1<
#1090000
0!
0<
#1095000
1!
1<
b10101 7
08
19
1"
1=
#1100000
0!
0<
#1105000
1!
1<
18
09
0"
1#
0=
1>
#1110000
0!
0<
#1115000
1!
1<
b111101111100001 U
b10110 S
0#
13
02
01
00
0/
1.
1-
1*
0>
#1120000
0!
0<
#1125000
1!
1<
#1130000
0!
0<
#1135000
1!
1<
#1140000
0!
0<
#1145000
1!
1<
b10110 7
08
19
1"
1=
#1150000
0!
0<
#1155000
1!
1<
18
09
0"
1#
0=
1>
#1160000
0!
0<
#1165000
1!
1<
b111110110100111 U
b10111 S
0#
12
11
0-
0*
1)
0>
#1170000
0!
0<
#1175000
1!
1<
#1180000
0!
0<
#1185000
1!
1<
#1190000
0!
0<
#1195000
1!
1<
b10111 7
08
19
1"
1=
#1200000
0!
0<
#1205000
1!
1<
18
09
0"
1#
0=
1>
#1210000
0!
0<
#1215000
1!
1<
b111111011101111 U
b11000 S
0#
10
1-
0+
1*
0>
#1220000
0!
0<
#1225000
1!
1<
#1230000
0!
0<
#1235000
1!
1<
#1240000
0!
0<
#1245000
1!
1<
b11000 7
08
19
1"
1=
#1250000
0!
0<
#1255000
1!
1<
18
09
0"
1#
0=
1>
#1260000
0!
0<
#1265000
1!
1<
b111111110110111 U
b11001 S
0#
00
1/
0-
1+
0>
#1270000
0!
0<
#1275000
1!
1<
#1280000
0!
0<
#1285000
1!
1<
#1290000
0!
0<
#1295000
1!
1<
b11001 7
08
19
1"
1=
#1300000
0!
0<
#1305000
1!
1<
18
09
0"
1#
0=
1>
#1310000
0!
0<
#1315000
1!
1<
b111111111111111 U
b11010 S
0#
10
1-
0>
#1320000
0!
0<
#1325000
1!
1<
#1330000
0!
0<
#1335000
1!
1<
#1340000
0!
0<
#1345000
1!
1<
b11010 7
08
19
1"
1=
#1350000
0!
0<
#1355000
1!
1<
18
09
0"
1#
0=
1>
#1360000
0!
0<
#1365000
1!
1<
b111111111000110 U
b11011 S
0#
03
00
0/
0.
0>
#1370000
0!
0<
#1375000
1!
1<
#1380000
0!
0<
#1385000
1!
1<
#1390000
0!
0<
#1395000
1!
1<
b11011 7
08
19
1"
1=
#1400000
0!
0<
#1405000
1!
1<
18
09
0"
1#
0=
1>
#1410000
0!
0<
#1415000
1!
1<
b111111100001100 U
b11100 S
0#
02
10
0-
0,
0>
#1420000
0!
0<
#1425000
1!
1<
#1430000
0!
0<
#1435000
1!
1<
#1440000
0!
0<
#1445000
1!
1<
b11100 7
08
19
1"
1=
#1450000
0!
0<
#1455000
1!
1<
18
09
0"
1#
0=
1>
#1460000
0!
0<
#1465000
1!
1<
b111110111010011 U
b11101 S
0#
13
12
01
00
1/
1-
1,
0*
0>
#1470000
0!
0<
#1475000
1!
1<
#1480000
0!
0<
#1485000
1!
1<
#1490000
0!
0<
#1495000
1!
1<
b11101 7
08
19
1"
1=
#1500000
0!
0<
#1505000
1!
1<
18
09
0"
1#
0=
1>
#1510000
0!
0<
#1515000
1!
1<
b111110000011011 U
b11110 S
0#
10
0-
0,
0+
0>
#1520000
0!
0<
#1525000
1!
1<
#1530000
0!
0<
#1535000
1!
1<
#1540000
0!
0<
#1545000
1!
1<
b11110 7
08
19
1"
1=
#1550000
0!
0<
#1555000
1!
1<
18
09
0"
1#
0=
1>
#1560000
0!
0<
#1565000
1!
1<
b111100111100110 U
b11111 S
0#
03
11
00
0/
1.
1-
1,
1+
0)
0>
#1570000
0!
0<
#1575000
1!
1<
#1580000
0!
0<
#1585000
1!
1<
#1590000
0!
0<
#1595000
1!
1<
b11111 7
08
19
1"
1=
#1600000
0!
0<
#1605000
1!
1<
18
09
0"
1#
0=
1>
#1610000
0!
0<
#1615000
1!
1<
b111011100110111 U
b100000 S
0#
13
1/
0-
0,
1*
1)
0(
0>
#1620000
0!
0<
#1625000
1!
1<
#1630000
0!
0<
#1635000
1!
1<
#1640000
0!
0<
#1645000
1!
1<
b100000 7
08
19
1"
1=
#1650000
0!
0<
#1655000
1!
1<
18
09
0"
1#
0=
1>
#1660000
0!
0<
#1665000
1!
1<
b111010000010000 U
b100001 S
0#
03
02
01
0.
0+
0*
0>
#1670000
0!
0<
#1675000
1!
1<
#1680000
0!
0<
#1685000
1!
1<
#1690000
0!
0<
#1695000
1!
1<
b100001 7
08
19
1"
1=
#1700000
0!
0<
#1705000
1!
1<
18
09
0"
1#
0=
1>
#1710000
0!
0<
#1715000
1!
1<
b111000001110100 U
b100010 S
0#
11
1.
1-
0)
0>
#1720000
0!
0<
#1725000
1!
1<
#1730000
0!
0<
#1735000
1!
1<
#1740000
0!
0<
#1745000
1!
1<
b100010 7
08
19
1"
1=
#1750000
0!
0<
#1755000
1!
1<
18
09
0"
1#
0=
1>
#1760000
0!
0<
#1765000
1!
1<
b110110001100111 U
b100011 S
0#
13
12
0/
1)
1(
0'
0>
#1770000
0!
0<
#1775000
1!
1<
#1780000
0!
0<
#1785000
1!
1<
#1790000
0!
0<
#1795000
1!
1<
b100011 7
08
19
1"
1=
#1800000
0!
0<
#1805000
1!
1<
18
09
0"
1#
0=
1>
#1810000
0!
0<
#1815000
1!
1<
b110011111101101 U
b100100 S
0#
02
10
1,
1+
1*
0(
0>
#1820000
0!
0<
#1825000
1!
1<
#1830000
0!
0<
#1835000
1!
1<
#1840000
0!
0<
#1845000
1!
1<
b100100 7
08
19
1"
1=
#1850000
0!
0<
#1855000
1!
1<
18
09
0"
1#
0=
1>
#1860000
0!
0<
#1865000
1!
1<
b110001100001010 U
b100101 S
0#
03
12
01
0.
0-
0,
0)
0>
#1870000
0!
0<
#1875000
1!
1<
#1880000
0!
0<
#1885000
1!
1<
#1890000
0!
0<
#1895000
1!
1<
b100101 7
08
19
1"
1=
#1900000
0!
0<
#1905000
1!
1<
18
09
0"
1#
0=
1>
#1910000
0!
0<
#1915000
1!
1<
b101110111000100 U
b100110 S
0#
02
11
00
1-
1,
0*
1)
1(
1'
0&
0>
#1920000
0!
0<
#1925000
1!
1<
#1930000
0!
0<
#1935000
1!
1<
#1940000
0!
0<
#1945000
1!
1<
b100110 7
08
19
1"
1=
#1950000
0!
0<
#1955000
1!
1<
18
09
0"
1#
0=
1>
#1960000
0!
0<
#1965000
1!
1<
b101100000100000 U
b100111 S
0#
01
1.
0-
0,
0+
0)
0>
#1970000
0!
0<
#1975000
1!
1<
#1980000
0!
0<
#1985000
1!
1<
#1990000
0!
0<
#1995000
1!
1<
b100111 7
08
19
1"
1=
#2000000
0!
0<
#2005000
1!
1<
18
09
0"
1#
0=
1>
#2010000
0!
0<
#2015000
1!
1<
b101001000100010 U
b101000 S
0#
12
1*
0(
0>
#2020000
0!
0<
#2025000
1!
1<
#2030000
0!
0<
#2035000
1!
1<
#2040000
0!
0<
#2045000
1!
1<
b101000 7
08
19
1"
1=
#2050000
0!
0<
#2055000
1!
1<
18
09
0"
1#
0=
1>
#2060000
0!
0<
#2065000
1!
1<
b100101111010011 U
b101001 S
0#
13
1/
0.
1-
1,
1+
1(
0'
0>
#2070000
0!
0<
#2075000
1!
1<
#2080000
0!
0<
#2085000
1!
1<
#2090000
0!
0<
#2095000
1!
1<
b101001 7
08
19
1"
1=
#2100000
0!
0<
#2105000
1!
1<
18
09
0"
1#
0=
1>
#2110000
0!
0<
#2115000
1!
1<
b100010100110111 U
b101010 S
0#
11
1.
0-
0,
0*
1)
0(
0>
#2120000
0!
0<
#2125000
1!
1<
#2130000
0!
0<
#2135000
1!
1<
#2140000
0!
0<
#2145000
1!
1<
b101010 7
08
19
1"
1=
#2150000
0!
0<
#2155000
1!
1<
18
09
0"
1#
0=
1>
#2160000
0!
0<
#2165000
1!
1<
b11111001010101 U
b101011 S
0#
02
0.
1-
0+
1*
1(
1'
1&
0%
0>
#2170000
0!
0<
#2175000
1!
1<
#2180000
0!
0<
#2185000
1!
1<
#2190000
0!
0<
#2195000
1!
1<
b101011 7
08
19
1"
1=
#2200000
0!
0<
#2205000
1!
1<
18
09
0"
1#
0=
1>
#2210000
0!
0<
#2215000
1!
1<
b11011100110101 U
b101100 S
0#
1.
0-
1+
0(
0>
#2220000
0!
0<
#2225000
1!
1<
#2230000
0!
0<
#2235000
1!
1<
#2240000
0!
0<
#2245000
1!
1<
b101100 7
08
19
1"
1=
#2250000
0!
0<
#2255000
1!
1<
18
09
0"
1#
0=
1>
#2260000
0!
0<
#2265000
1!
1<
b10111111011101 U
b101101 S
0#
10
0.
1-
1,
1(
0'
0>
#2270000
0!
0<
#2275000
1!
1<
#2280000
0!
0<
#2285000
1!
1<
#2290000
0!
0<
#2295000
1!
1<
b101101 7
08
19
1"
1=
#2300000
0!
0<
#2305000
1!
1<
18
09
0"
1#
0=
1>
#2310000
0!
0<
#2315000
1!
1<
b10100001010101 U
b101110 S
0#
00
0,
0+
0*
0)
0>
#2320000
0!
0<
#2325000
1!
1<
#2330000
0!
0<
#2335000
1!
1<
#2340000
0!
0<
#2345000
1!
1<
b101110 7
08
19
1"
1=
#2350000
0!
0<
#2355000
1!
1<
18
09
0"
1#
0=
1>
#2360000
0!
0<
#2365000
1!
1<
b10000010100101 U
b101111 S
0#
0/
1.
0-
1,
0(
0>
#2370000
0!
0<
#2375000
1!
1<
#2380000
0!
0<
#2385000
1!
1<
#2390000
0!
0<
#2395000
1!
1<
b101111 7
08
19
1"
1=
#2400000
0!
0<
#2405000
1!
1<
18
09
0"
1#
0=
1>
#2410000
0!
0<
#2415000
1!
1<
b1100011010011 U
b110000 S
0#
12
01
1/
0.
1-
1(
1'
0&
0>
#2420000
0!
0<
#2425000
1!
1<
#2430000
0!
0<
#2435000
1!
1<
#2440000
0!
0<
#2445000
1!
1<
b110000 7
08
19
1"
1=
#2450000
0!
0<
#2455000
1!
1<
18
09
0"
1#
0=
1>
#2460000
0!
0<
#2465000
1!
1<
b1000011101001 U
b110001 S
0#
02
10
0/
1.
0(
0>
#2470000
0!
0<
#2475000
1!
1<
#2480000
0!
0<
#2485000
1!
1<
#2490000
0!
0<
#2495000
1!
1<
b110001 7
08
19
1"
1=
#2500000
0!
0<
#2505000
1!
1<
18
09
0"
1#
0=
1>
#2510000
0!
0<
#2515000
1!
1<
b100011101110 U
b110010 S
0#
03
12
11
1(
0'
0>
#2520000
0!
0<
#2525000
1!
1<
#2530000
0!
0<
#2535000
1!
1<
#2540000
0!
0<
#2545000
1!
1<
b110010 7
08
19
1"
1=
#2550000
0!
0<
#2555000
1!
1<
18
09
0"
1#
0=
1>
#2560000
0!
0<
#2565000
1!
1<
b11101001 U
b110011 S
0#
13
02
01
0(
0>
#2570000
0!
0<
#2575000
1!
1<
#2580000
0!
0<
#2585000
1!
1<
#2590000
0!
0<
#2595000
1!
1<
b110011 7
08
19
1"
1=
#2600000
0!
0<
#2605000
1!
1<
18
09
0"
1#
0=
1>
#2610000
0!
0<
#2615000
1!
1<
b1111100011100100 U
b110100 S
0#
03
11
00
1(
1'
1&
1%
1$
0>
#2620000
0!
0<
#2625000
1!
1<
#2630000
0!
0<
#2635000
1!
1<
#2640000
0!
0<
#2645000
1!
1<
b110100 7
08
19
1"
1=
#2650000
0!
0<
#2655000
1!
1<
18
09
0"
1#
0=
1>
#2660000
0!
0<
#2665000
1!
1<
b1111000011100110 U
b110101 S
0#
12
0(
0>
#2670000
0!
0<
#2675000
1!
1<
#2680000
0!
0<
#2685000
1!
1<
#2690000
0!
0<
#2695000
1!
1<
b110101 7
08
19
1"
1=
#2700000
0!
0<
#2705000
1!
1<
18
09
0"
1#
0=
1>
#2710000
0!
0<
#2715000
1!
1<
b1110100011110111 U
b110110 S
0#
13
1/
1(
0'
0>
#2720000
0!
0<
#2725000
1!
1<
#2730000
0!
0<
#2735000
1!
1<
#2740000
0!
0<
#2745000
1!
1<
b110110 7
08
19
1"
1=
#2750000
0!
0<
#2755000
1!
1<
18
09
0"
1#
0=
1>
#2760000
0!
0<
#2765000
1!
1<
b1110000100100000 U
b110111 S
0#
03
02
01
0/
0-
0,
1+
0(
0>
#2770000
0!
0<
#2775000
1!
1<
#2780000
0!
0<
#2785000
1!
1<
#2790000
0!
0<
#2795000
1!
1<
b110111 7
08
19
1"
1=
#2800000
0!
0<
#2805000
1!
1<
18
09
0"
1#
0=
1>
#2810000
0!
0<
#2815000
1!
1<
b1101100101100111 U
b111000 S
0#
13
12
11
1-
1(
1'
0&
0>
#2820000
0!
0<
#2825000
1!
1<
#2830000
0!
0<
#2835000
1!
1<
#2840000
0!
0<
#2845000
1!
1<
b111000 7
08
19
1"
1=
#2850000
0!
0<
#2855000
1!
1<
18
09
0"
1#
0=
1>
#2860000
0!
0<
#2865000
1!
1<
b1101000111010101 U
b111001 S
0#
02
1/
0.
1,
0(
0>
#2870000
0!
0<
#2875000
1!
1<
#2880000
0!
0<
#2885000
1!
1<
#2890000
0!
0<
#2895000
1!
1<
b111001 7
08
19
1"
1=
#2900000
0!
0<
#2905000
1!
1<
18
09
0"
1#
0=
1>
#2910000
0!
0<
#2915000
1!
1<
b1100101001110010 U
b111010 S
0#
03
12
01
1.
0,
0+
1*
1(
0'
0>
#2920000
0!
0<
#2925000
1!
1<
#2930000
0!
0<
#2935000
1!
1<
#2940000
0!
0<
#2945000
1!
1<
b111010 7
08
19
1"
1=
#2950000
0!
0<
#2955000
1!
1<
18
09
0"
1#
0=
1>
#2960000
0!
0<
#2965000
1!
1<
b1100001101000100 U
b111011 S
0#
02
11
0/
0.
1+
0(
0>
#2970000
0!
0<
#2975000
1!
1<
#2980000
0!
0<
#2985000
1!
1<
#2990000
0!
0<
#2995000
1!
1<
b111011 7
08
19
1"
1=
#3000000
0!
0<
#3005000
1!
1<
18
09
0"
1#
0=
1>
#3010000
0!
0<
#3015000
1!
1<
b1011110001010100 U
b111100 S
0#
1/
0+
0*
1)
1(
1'
1&
0%
0>
#3020000
0!
0<
#3025000
1!
1<
#3030000
0!
0<
#3035000
1!
1<
#3040000
0!
0<
#3045000
1!
1<
b111100 7
08
19
1"
1=
#3050000
0!
0<
#3055000
1!
1<
18
09
0"
1#
0=
1>
#3060000
0!
0<
#3065000
1!
1<
b1011010110100111 U
b111101 S
0#
13
12
0/
1.
0-
1,
1+
0(
0>
#3070000
0!
0<
#3075000
1!
1<
#3080000
0!
0<
#3085000
1!
1<
#3090000
0!
0<
#3095000
1!
1<
b111101 7
08
19
1"
1=
#3100000
0!
0<
#3105000
1!
1<
18
09
0"
1#
0=
1>
#3110000
0!
0<
#3115000
1!
1<
b1010111101000110 U
b111110 S
0#
03
0.
1-
0,
1*
1(
0'
0>
#3120000
0!
0<
#3125000
1!
1<
#3130000
0!
0<
#3135000
1!
1<
#3140000
0!
0<
#3145000
1!
1<
b111110 7
08
19
1"
1=
#3150000
0!
0<
#3155000
1!
1<
18
09
0"
1#
0=
1>
#3160000
0!
0<
#3165000
1!
1<
b1010100100110101 U
b111111 S
0#
13
02
1/
1.
0-
0*
0)
0>
#3170000
0!
0<
#3175000
1!
1<
#3180000
0!
0<
#3185000
1!
1<
#3190000
0!
0<
#3195000
1!
1<
b111111 7
08
19
1"
1=
#3200000
0!
0<
#3205000
1!
1<
18
09
0"
1#
0=
1>
#3210000
0!
0<
#3215000
1!
1<
b1010001101111100 U
b1000000 S
0#
03
10
1-
1*
0(
0>
#3220000
0!
0<
#3225000
1!
1<
#3230000
0!
0<
#3235000
1!
1<
#3240000
0!
0<
#3245000
1!
1<
b1000000 7
08
19
1"
1=
#3250000
0!
0<
#3255000
1!
1<
18
09
0"
1#
0=
1>
#3260000
0!
0<
#3265000
1!
1<
b1001111000100000 U
b1000001 S
0#
01
00
0/
0-
0+
1)
1(
1'
0&
0>
#3270000
0!
0<
#3275000
1!
1<
#3280000
0!
0<
#3285000
1!
1<
#3290000
0!
0<
#3295000
1!
1<
b1000001 7
08
19
1"
1=
#3300000
0!
0<
#3305000
1!
1<
18
09
0"
1#
0=
1>
#3310000
0!
0<
#3315000
1!
1<
b1001100100100110 U
b1000010 S
0#
12
11
1+
0*
0)
0>
#3320000
0!
0<
#3325000
1!
1<
#3330000
0!
0<
#3335000
1!
1<
#3340000
0!
0<
#3345000
1!
1<
b1000010 7
08
19
1"
1=
#3350000
0!
0<
#3355000
1!
1<
18
09
0"
1#
0=
1>
#3360000
0!
0<
#3365000
1!
1<
b1001010010010100 U
b1000011 S
0#
02
1/
0.
1,
0+
1)
0(
0>
#3370000
0!
0<
#3375000
1!
1<
#3380000
0!
0<
#3385000
1!
1<
#3390000
0!
0<
#3395000
1!
1<
b1000011 7
08
19
1"
1=
#3400000
0!
0<
#3405000
1!
1<
18
09
0"
1#
0=
1>
#3410000
0!
0<
#3415000
1!
1<
b1001000001101110 U
b1000100 S
0#
12
10
0/
1.
1-
0,
0)
0>
#3420000
0!
0<
#3425000
1!
1<
#3430000
0!
0<
#3435000
1!
1<
#3440000
0!
0<
#3445000
1!
1<
b1000100 7
08
19
1"
1=
#3450000
0!
0<
#3455000
1!
1<
18
09
0"
1#
0=
1>
#3460000
0!
0<
#3465000
1!
1<
b1000110010111000 U
b1000101 S
0#
02
01
1/
0-
1,
1)
1(
0'
0>
#3470000
0!
0<
#3475000
1!
1<
#3480000
0!
0<
#3485000
1!
1<
#3490000
0!
0<
#3495000
1!
1<
b1000101 7
08
19
1"
1=
#3500000
0!
0<
#3505000
1!
1<
18
09
0"
1#
0=
1>
#3510000
0!
0<
#3515000
1!
1<
b1000100101110110 U
b1000110 S
0#
12
11
00
1-
0,
1+
0)
0>
#3520000
0!
0<
#3525000
1!
1<
#3530000
0!
0<
#3535000
1!
1<
#3540000
0!
0<
#3545000
1!
1<
b1000110 7
08
19
1"
1=
#3550000
0!
0<
#3555000
1!
1<
18
09
0"
1#
0=
1>
#3560000
0!
0<
#3565000
1!
1<
b1000011010101011 U
b1000111 S
0#
13
01
10
0/
0-
1,
0+
1*
1)
0(
0>
#3570000
0!
0<
#3575000
1!
1<
#3580000
0!
0<
#3585000
1!
1<
#3590000
0!
0<
#3595000
1!
1<
b1000111 7
08
19
1"
1=
#3600000
0!
0<
#3605000
1!
1<
18
09
0"
1#
0=
1>
#3610000
0!
0<
#3615000
1!
1<
b1000010001011010 U
b1001000 S
0#
03
1/
0.
1-
0,
0*
0>
#3620000
0!
0<
#3625000
1!
1<
#3630000
0!
0<
#3635000
1!
1<
#3640000
0!
0<
#3645000
1!
1<
b1001000 7
08
19
1"
1=
#3650000
0!
0<
#3655000
1!
1<
18
09
0"
1#
0=
1>
#3660000
0!
0<
#3665000
1!
1<
b1000001010000110 U
b1001001 S
0#
11
00
0/
0-
1,
1*
0)
0>
#3670000
0!
0<
#3675000
1!
1<
#3680000
0!
0<
#3685000
1!
1<
#3690000
0!
0<
#3695000
1!
1<
b1001001 7
08
19
1"
1=
#3700000
0!
0<
#3705000
1!
1<
18
09
0"
1#
0=
1>
#3710000
0!
0<
#3715000
1!
1<
b1000000100110000 U
b1001010 S
0#
02
01
1/
1.
0,
1+
0*
0>
#3720000
0!
0<
#3725000
1!
1<
#3730000
0!
0<
#3735000
1!
1<
#3740000
0!
0<
#3745000
1!
1<
b1001010 7
08
19
1"
1=
#3750000
0!
0<
#3755000
1!
1<
18
09
0"
1#
0=
1>
#3760000
0!
0<
#3765000
1!
1<
b1000000001011001 U
b1001011 S
0#
13
10
0.
1-
0+
0>
#3770000
0!
0<
#3775000
1!
1<
